%YAML 1.1
%TAG !u! tag:unity3d.com,2011:
--- !u!58 &3007811316398066380
CircleCollider2D:
  m_ObjectHideFlags: 0
  m_CorrespondingSourceObject: {fileID: 0}
  m_PrefabInstance: {fileID: 0}
  m_PrefabAsset: {fileID: 0}
  m_GameObject: {fileID: 4972908587997594961}
  m_Enabled: 1
  m_Density: 1
  m_Material: {fileID: 0}
  m_IsTrigger: 0
  m_UsedByEffector: 0
  m_UsedByComposite: 0
  m_Offset: {x: 0.038865663, y: 0}
  serializedVersion: 2
  m_Radius: 0.46113434
--- !u!58 &4251962407934321980
CircleCollider2D:
  m_ObjectHideFlags: 0
  m_CorrespondingSourceObject: {fileID: 0}
  m_PrefabInstance: {fileID: 0}
  m_PrefabAsset: {fileID: 0}
  m_GameObject: {fileID: 8186951551417780878}
  m_Enabled: 1
  m_Density: 1
  m_Material: {fileID: 0}
  m_IsTrigger: 0
  m_UsedByEffector: 0
  m_UsedByComposite: 0
  m_Offset: {x: 0, y: 0}
  serializedVersion: 2
  m_Radius: 0.4611343
--- !u!1001 &2009241611062663254
PrefabInstance:
  m_ObjectHideFlags: 0
  serializedVersion: 2
  m_Modification:
    m_TransformParent: {fileID: 0}
    m_Modifications:
    - target: {fileID: 1435867096413314433, guid: a4b4a6d32bcb19248a754d6602ffc7e4,
        type: 3}
      propertyPath: m_Offset.y
      value: -0.0073082596
      objectReference: {fileID: 0}
    - target: {fileID: 1435867096413314433, guid: a4b4a6d32bcb19248a754d6602ffc7e4,
        type: 3}
      propertyPath: m_Size.y
      value: 0.074985504
      objectReference: {fileID: 0}
    - target: {fileID: 1759097492453984730, guid: a4b4a6d32bcb19248a754d6602ffc7e4,
        type: 3}
      propertyPath: LeftAttackSide
      value: 
      objectReference: {fileID: 4972908587997594961}
    - target: {fileID: 1759097492453984730, guid: a4b4a6d32bcb19248a754d6602ffc7e4,
        type: 3}
      propertyPath: RightAttackSide
      value: 
      objectReference: {fileID: 8186951551417780878}
    - target: {fileID: 2655505060201611074, guid: a4b4a6d32bcb19248a754d6602ffc7e4,
        type: 3}
      propertyPath: m_Controller
      value: 
      objectReference: {fileID: 9100000, guid: d2ff9ea7034a0594480b296bbaab1316, type: 2}
    - target: {fileID: 2954181336601895002, guid: a4b4a6d32bcb19248a754d6602ffc7e4,
        type: 3}
      propertyPath: m_FlipX
      value: 0
      objectReference: {fileID: 0}
    - target: {fileID: 2954181336601895002, guid: a4b4a6d32bcb19248a754d6602ffc7e4,
        type: 3}
      propertyPath: m_FlipY
      value: 0
      objectReference: {fileID: 0}
    - target: {fileID: 5162698856006992724, guid: a4b4a6d32bcb19248a754d6602ffc7e4,
        type: 3}
      propertyPath: m_LocalPosition.x
      value: -0.955
      objectReference: {fileID: 0}
    - target: {fileID: 5162698856006992724, guid: a4b4a6d32bcb19248a754d6602ffc7e4,
        type: 3}
      propertyPath: m_LocalPosition.y
      value: 0.672
      objectReference: {fileID: 0}
    - target: {fileID: 5313880144758744584, guid: a4b4a6d32bcb19248a754d6602ffc7e4,
        type: 3}
      propertyPath: m_LocalPosition.y
      value: 0.672
      objectReference: {fileID: 0}
    - target: {fileID: 5313880144758744584, guid: a4b4a6d32bcb19248a754d6602ffc7e4,
        type: 3}
      propertyPath: m_LocalPosition.x
      value: 0.955
      objectReference: {fileID: 0}
    - target: {fileID: 6323719953710832613, guid: a4b4a6d32bcb19248a754d6602ffc7e4,
        type: 3}
      propertyPath: m_Name
      value: HeroKnight Variant
      objectReference: {fileID: 0}
    - target: {fileID: 6836763966950399239, guid: a4b4a6d32bcb19248a754d6602ffc7e4,
        type: 3}
      propertyPath: m_IsActive
      value: 0
      objectReference: {fileID: 0}
    - target: {fileID: 7674036556117955288, guid: a4b4a6d32bcb19248a754d6602ffc7e4,
        type: 3}
      propertyPath: m_IsActive
      value: 0
      objectReference: {fileID: 0}
    - target: {fileID: 8413529789942519730, guid: a4b4a6d32bcb19248a754d6602ffc7e4,
        type: 3}
      propertyPath: m_LocalPosition.x
      value: 20.76001
      objectReference: {fileID: 0}
    - target: {fileID: 8413529789942519730, guid: a4b4a6d32bcb19248a754d6602ffc7e4,
        type: 3}
      propertyPath: m_LocalPosition.y
      value: -5
      objectReference: {fileID: 0}
    - target: {fileID: 8413529789942519730, guid: a4b4a6d32bcb19248a754d6602ffc7e4,
        type: 3}
      propertyPath: m_LocalPosition.z
      value: -2.1
      objectReference: {fileID: 0}
    - target: {fileID: 8413529789942519730, guid: a4b4a6d32bcb19248a754d6602ffc7e4,
        type: 3}
      propertyPath: m_LocalRotation.x
      value: -0
      objectReference: {fileID: 0}
    - target: {fileID: 8413529789942519730, guid: a4b4a6d32bcb19248a754d6602ffc7e4,
        type: 3}
      propertyPath: m_LocalRotation.y
      value: -0
      objectReference: {fileID: 0}
    - target: {fileID: 8413529789942519730, guid: a4b4a6d32bcb19248a754d6602ffc7e4,
        type: 3}
      propertyPath: m_LocalRotation.z
      value: -0
      objectReference: {fileID: 0}
    - target: {fileID: 8413529789942519730, guid: a4b4a6d32bcb19248a754d6602ffc7e4,
        type: 3}
      propertyPath: m_LocalRotation.w
      value: 1
      objectReference: {fileID: 0}
    - target: {fileID: 8413529789942519730, guid: a4b4a6d32bcb19248a754d6602ffc7e4,
        type: 3}
      propertyPath: m_RootOrder
      value: 0
      objectReference: {fileID: 0}
    - target: {fileID: 8413529789942519730, guid: a4b4a6d32bcb19248a754d6602ffc7e4,
        type: 3}
      propertyPath: m_LocalEulerAnglesHint.x
      value: 0
      objectReference: {fileID: 0}
    - target: {fileID: 8413529789942519730, guid: a4b4a6d32bcb19248a754d6602ffc7e4,
        type: 3}
      propertyPath: m_LocalEulerAnglesHint.y
      value: 0
      objectReference: {fileID: 0}
    - target: {fileID: 8413529789942519730, guid: a4b4a6d32bcb19248a754d6602ffc7e4,
        type: 3}
      propertyPath: m_LocalEulerAnglesHint.z
      value: 0
      objectReference: {fileID: 0}
    - target: {fileID: 8413529789942519730, guid: a4b4a6d32bcb19248a754d6602ffc7e4,
        type: 3}
      propertyPath: m_LocalScale.x
      value: 1.25
      objectReference: {fileID: 0}
    - target: {fileID: 8413529789942519730, guid: a4b4a6d32bcb19248a754d6602ffc7e4,
        type: 3}
      propertyPath: m_LocalScale.y
      value: 1.25
      objectReference: {fileID: 0}
    - target: {fileID: 9043920546160527475, guid: a4b4a6d32bcb19248a754d6602ffc7e4,
        type: 3}
      propertyPath: m_speed
      value: 6
      objectReference: {fileID: 0}
    - target: {fileID: 9043920546160527475, guid: a4b4a6d32bcb19248a754d6602ffc7e4,
        type: 3}
      propertyPath: m_jumpForce
      value: 10
      objectReference: {fileID: 0}
    - target: {fileID: 9117128348835321587, guid: a4b4a6d32bcb19248a754d6602ffc7e4,
        type: 3}
      propertyPath: m_Offset.y
      value: 0.71811634
      objectReference: {fileID: 0}
    - target: {fileID: 9117128348835321587, guid: a4b4a6d32bcb19248a754d6602ffc7e4,
        type: 3}
      propertyPath: m_Size.y
      value: 1.0877675
      objectReference: {fileID: 0}
    m_RemovedComponents: []
  m_SourcePrefab: {fileID: 100100000, guid: a4b4a6d32bcb19248a754d6602ffc7e4, type: 3}
--- !u!1 &4972908587997594961 stripped
GameObject:
  m_CorrespondingSourceObject: {fileID: 6836763966950399239, guid: a4b4a6d32bcb19248a754d6602ffc7e4,
    type: 3}
  m_PrefabInstance: {fileID: 2009241611062663254}
  m_PrefabAsset: {fileID: 0}
--- !u!1 &8186951551417780878 stripped
GameObject:
  m_CorrespondingSourceObject: {fileID: 7674036556117955288, guid: a4b4a6d32bcb19248a754d6602ffc7e4,
    type: 3}
  m_PrefabInstance: {fileID: 2009241611062663254}
  m_PrefabAsset: {fileID: 0}
